<?xml version="1.0" standalone="no"?>
<!DOCTYPE svg PUBLIC "-//W3C//DTD SVG 20010904//EN"
 "http://www.w3.org/TR/2001/REC-SVG-20010904/DTD/svg10.dtd">
<svg version="1.0" xmlns="http://www.w3.org/2000/svg"
 width="47.000000pt" height="60.000000pt" viewBox="0 0 47.000000 60.000000"
 preserveAspectRatio="xMidYMid meet">
<metadata>
Created by potrace 1.14, written by Peter Selinger 2001-2017
</metadata>
<g transform="translate(0.000000,60.000000) scale(0.100000,-0.100000)"
fill="#000000" stroke="none">
<path d="M140 230 l0 -180 35 0 35 0 0 67 c0 63 1 65 18 50 46 -42 115 -26
144 33 33 64 16 175 -30 199 -30 16 -84 13 -110 -5 -20 -14 -22 -14 -22 0 0
12 -10 16 -35 16 l-35 0 0 -180z m158 118 c7 -7 12 -38 12 -70 0 -49 -3 -60
-24 -73 -13 -8 -30 -13 -39 -9 -35 13 -46 114 -16 151 14 16 51 17 67 1z"/>
</g>
</svg>
