<?xml version="1.0" standalone="no"?>
<!DOCTYPE svg PUBLIC "-//W3C//DTD SVG 20010904//EN"
 "http://www.w3.org/TR/2001/REC-SVG-20010904/DTD/svg10.dtd">
<svg version="1.0" xmlns="http://www.w3.org/2000/svg"
 width="47.000000pt" height="60.000000pt" viewBox="0 0 47.000000 60.000000"
 preserveAspectRatio="xMidYMid meet">
<metadata>
Created by potrace 1.14, written by Peter Selinger 2001-2017
</metadata>
<g transform="translate(0.000000,60.000000) scale(0.100000,-0.100000)"
fill="#000000" stroke="none">
<path d="M167 399 c-28 -16 -47 -64 -47 -119 0 -110 64 -166 143 -126 l27 15
0 -60 0 -59 40 0 40 0 0 180 0 180 -34 0 c-19 0 -36 -5 -38 -11 -3 -9 -9 -9
-25 0 -27 14 -82 14 -106 0z m113 -58 c5 -11 10 -42 10 -70 0 -42 -4 -53 -24
-66 -19 -13 -29 -14 -45 -6 -34 19 -40 111 -9 148 16 19 56 15 68 -6z"/>
</g>
</svg>
