<?xml version="1.0" standalone="no"?>
<!DOCTYPE svg PUBLIC "-//W3C//DTD SVG 20010904//EN"
 "http://www.w3.org/TR/2001/REC-SVG-20010904/DTD/svg10.dtd">
<svg version="1.0" xmlns="http://www.w3.org/2000/svg"
 width="47.000000pt" height="60.000000pt" viewBox="0 0 47.000000 60.000000"
 preserveAspectRatio="xMidYMid meet">
<metadata>
Created by potrace 1.14, written by Peter Selinger 2001-2017
</metadata>
<g transform="translate(0.000000,60.000000) scale(0.100000,-0.100000)"
fill="#000000" stroke="none">
<path d="M182 394 c-31 -21 -41 -53 -30 -86 9 -26 32 -39 123 -66 38 -11 39
-33 2 -46 -22 -8 -35 -7 -59 7 -35 20 -78 22 -78 4 0 -8 11 -24 25 -37 21 -20
37 -24 85 -25 74 0 114 25 118 77 4 44 -18 64 -95 87 -67 20 -78 44 -23 49 22
2 38 -2 45 -11 8 -11 20 -13 45 -8 l35 7 -32 32 c-28 28 -38 32 -85 32 -33 0
-62 -6 -76 -16z"/>
</g>
</svg>
