<?xml version="1.0" standalone="no"?>
<!DOCTYPE svg PUBLIC "-//W3C//DTD SVG 20010904//EN"
 "http://www.w3.org/TR/2001/REC-SVG-20010904/DTD/svg10.dtd">
<svg version="1.0" xmlns="http://www.w3.org/2000/svg"
 width="47.000000pt" height="60.000000pt" viewBox="0 0 47.000000 60.000000"
 preserveAspectRatio="xMidYMid meet">
<metadata>
Created by potrace 1.14, written by Peter Selinger 2001-2017
</metadata>
<g transform="translate(0.000000,60.000000) scale(0.100000,-0.100000)"
fill="#000000" stroke="none">
<path d="M273 503 c-36 -7 -53 -41 -53 -108 0 -66 -4 -76 -37 -94 -25 -13 -31
-51 -9 -51 31 0 46 -30 46 -93 0 -84 16 -107 76 -107 40 0 44 2 44 24 0 18 -6
25 -22 28 -21 3 -24 10 -28 69 -3 44 -11 74 -22 86 -17 18 -17 20 0 36 11 12
19 40 22 85 5 61 7 67 28 70 19 3 23 9 20 30 -3 28 -20 34 -65 25z"/>
</g>
</svg>
