<?xml version="1.0" standalone="no"?>
<!DOCTYPE svg PUBLIC "-//W3C//DTD SVG 20010904//EN"
 "http://www.w3.org/TR/2001/REC-SVG-20010904/DTD/svg10.dtd">
<svg version="1.0" xmlns="http://www.w3.org/2000/svg"
 width="47.000000pt" height="60.000000pt" viewBox="0 0 47.000000 60.000000"
 preserveAspectRatio="xMidYMid meet">
<metadata>
Created by potrace 1.14, written by Peter Selinger 2001-2017
</metadata>
<g transform="translate(0.000000,60.000000) scale(0.100000,-0.100000)"
fill="#000000" stroke="none">
<path d="M214 376 c-13 -33 0 -51 39 -54 36 -3 37 -3 37 32 0 34 -2 36 -35 36
-22 0 -38 -6 -41 -14z"/>
<path d="M220 223 c0 -38 -3 -92 -6 -120 l-7 -53 43 0 43 0 -7 92 c-3 50 -6
104 -6 120 0 24 -4 28 -30 28 l-30 0 0 -67z"/>
</g>
</svg>
