<?xml version="1.0" standalone="no"?>
<!DOCTYPE svg PUBLIC "-//W3C//DTD SVG 20010904//EN"
 "http://www.w3.org/TR/2001/REC-SVG-20010904/DTD/svg10.dtd">
<svg version="1.0" xmlns="http://www.w3.org/2000/svg"
 width="47.000000pt" height="60.000000pt" viewBox="0 0 47.000000 60.000000"
 preserveAspectRatio="xMidYMid meet">
<metadata>
Created by potrace 1.14, written by Peter Selinger 2001-2017
</metadata>
<g transform="translate(0.000000,60.000000) scale(0.100000,-0.100000)"
fill="#000000" stroke="none">
<path d="M195 446 c-16 -16 -26 -41 -31 -74 -5 -37 -11 -52 -25 -55 -11 -3
-19 -14 -19 -26 0 -16 6 -21 25 -21 14 0 25 -4 25 -9 0 -22 -23 -70 -36 -75
-8 -3 -14 -17 -14 -31 l0 -25 101 0 c111 0 132 7 154 50 19 38 20 37 -12 43
-20 4 -33 -1 -50 -19 -17 -19 -32 -24 -68 -24 -46 0 -46 0 -31 22 9 12 16 33
16 45 0 20 5 23 35 23 31 0 35 3 35 25 0 22 -4 25 -35 25 -34 0 -35 1 -35 38
0 21 5 43 12 50 17 17 47 15 54 -3 7 -17 41 -20 63 -6 12 7 8 15 -17 40 -40
41 -110 44 -147 7z"/>
</g>
</svg>
