<?xml version="1.0" standalone="no"?>
<!DOCTYPE svg PUBLIC "-//W3C//DTD SVG 20010904//EN"
 "http://www.w3.org/TR/2001/REC-SVG-20010904/DTD/svg10.dtd">
<svg version="1.0" xmlns="http://www.w3.org/2000/svg"
 width="47.000000pt" height="60.000000pt" viewBox="0 0 47.000000 60.000000"
 preserveAspectRatio="xMidYMid meet">
<metadata>
Created by potrace 1.14, written by Peter Selinger 2001-2017
</metadata>
<g transform="translate(0.000000,60.000000) scale(0.100000,-0.100000)"
fill="#000000" stroke="none">
<path d="M165 454 c-67 -35 -97 -83 -97 -154 0 -79 51 -147 130 -171 76 -22
178 32 203 108 16 49 7 124 -20 162 -46 64 -149 90 -216 55z m151 -39 c117
-76 64 -255 -76 -255 -90 0 -146 63 -138 152 10 103 127 160 214 103z"/>
<path d="M192 390 c-53 -22 -64 -126 -17 -170 32 -30 98 -30 131 1 13 12 24
26 24 30 0 16 -38 15 -59 -2 -13 -11 -27 -19 -32 -19 -20 0 -49 42 -49 69 0
53 50 79 85 45 25 -25 56 -6 37 22 -20 31 -75 41 -120 24z"/>
</g>
</svg>
