<?xml version="1.0" standalone="no"?>
<!DOCTYPE svg PUBLIC "-//W3C//DTD SVG 20010904//EN"
 "http://www.w3.org/TR/2001/REC-SVG-20010904/DTD/svg10.dtd">
<svg version="1.0" xmlns="http://www.w3.org/2000/svg"
 width="47.000000pt" height="60.000000pt" viewBox="0 0 47.000000 60.000000"
 preserveAspectRatio="xMidYMid meet">
<metadata>
Created by potrace 1.14, written by Peter Selinger 2001-2017
</metadata>
<g transform="translate(0.000000,60.000000) scale(0.100000,-0.100000)"
fill="#000000" stroke="none">
<path d="M172 315 c-18 -25 -32 -50 -32 -56 0 -6 14 -30 30 -55 25 -35 37 -44
60 -44 37 0 37 7 1 58 l-30 40 29 39 c37 48 37 63 2 63 -22 0 -35 -10 -60 -45z"/>
<path d="M282 316 c-18 -24 -32 -51 -32 -58 0 -8 14 -33 31 -56 24 -33 37 -42
60 -42 36 0 36 6 0 56 l-30 40 29 45 c37 54 37 59 2 59 -22 0 -36 -10 -60 -44z"/>
</g>
</svg>
