<?xml version="1.0" standalone="no"?>
<!DOCTYPE svg PUBLIC "-//W3C//DTD SVG 20010904//EN"
 "http://www.w3.org/TR/2001/REC-SVG-20010904/DTD/svg10.dtd">
<svg version="1.0" xmlns="http://www.w3.org/2000/svg"
 width="47.000000pt" height="60.000000pt" viewBox="0 0 47.000000 60.000000"
 preserveAspectRatio="xMidYMid meet">
<metadata>
Created by potrace 1.14, written by Peter Selinger 2001-2017
</metadata>
<g transform="translate(0.000000,60.000000) scale(0.100000,-0.100000)"
fill="#000000" stroke="none">
<path d="M167 449 c-107 -56 -121 -203 -27 -283 43 -36 100 -50 150 -36 48 13
103 59 120 100 18 44 8 130 -19 169 -48 67 -149 90 -224 50z m159 -34 c59 -39
79 -115 47 -182 -46 -97 -199 -98 -249 -2 -23 45 -15 121 17 156 50 53 128 66
185 28z"/>
<path d="M177 393 c-4 -3 -7 -48 -7 -100 0 -93 0 -93 25 -93 22 0 25 4 25 35
0 47 25 47 47 0 13 -28 23 -35 45 -35 l28 0 -24 39 c-25 38 -25 39 -5 56 32
30 24 71 -18 94 -23 12 -105 15 -116 4z m98 -58 c0 -14 -8 -21 -27 -23 -24 -3
-28 0 -28 23 0 23 4 26 28 23 19 -2 27 -9 27 -23z"/>
</g>
</svg>
