<?xml version="1.0" standalone="no"?>
<!DOCTYPE svg PUBLIC "-//W3C//DTD SVG 20010904//EN"
 "http://www.w3.org/TR/2001/REC-SVG-20010904/DTD/svg10.dtd">
<svg version="1.0" xmlns="http://www.w3.org/2000/svg"
 width="47.000000pt" height="60.000000pt" viewBox="0 0 47.000000 60.000000"
 preserveAspectRatio="xMidYMid meet">
<metadata>
Created by potrace 1.14, written by Peter Selinger 2001-2017
</metadata>
<g transform="translate(0.000000,60.000000) scale(0.100000,-0.100000)"
fill="#000000" stroke="none">
<path d="M190 450 c-27 -27 -25 -40 4 -40 14 0 28 5 31 10 8 13 35 13 35 0 0
-6 -10 -18 -22 -28 -48 -38 -68 -62 -68 -82 0 -18 6 -20 70 -20 63 0 70 2 70
20 0 17 -7 20 -42 20 l-43 0 38 25 c44 31 57 68 32 95 -24 26 -79 26 -105 0z"/>
</g>
</svg>
