<?xml version="1.0" standalone="no"?>
<!DOCTYPE svg PUBLIC "-//W3C//DTD SVG 20010904//EN"
 "http://www.w3.org/TR/2001/REC-SVG-20010904/DTD/svg10.dtd">
<svg version="1.0" xmlns="http://www.w3.org/2000/svg"
 width="47.000000pt" height="60.000000pt" viewBox="0 0 47.000000 60.000000"
 preserveAspectRatio="xMidYMid meet">
<metadata>
Created by potrace 1.14, written by Peter Selinger 2001-2017
</metadata>
<g transform="translate(0.000000,60.000000) scale(0.100000,-0.100000)"
fill="#000000" stroke="none">
<path d="M140 210 l0 -180 35 0 35 0 0 49 c0 54 -10 49 108 50 l42 0 0 131 0
130 -35 0 -35 0 0 -86 c0 -93 -10 -124 -40 -124 -30 0 -40 31 -40 124 l0 86
-35 0 -35 0 0 -180z"/>
</g>
</svg>
