<?xml version="1.0" standalone="no"?>
<!DOCTYPE svg PUBLIC "-//W3C//DTD SVG 20010904//EN"
 "http://www.w3.org/TR/2001/REC-SVG-20010904/DTD/svg10.dtd">
<svg version="1.0" xmlns="http://www.w3.org/2000/svg"
 width="47.000000pt" height="60.000000pt" viewBox="0 0 47.000000 60.000000"
 preserveAspectRatio="xMidYMid meet">
<metadata>
Created by potrace 1.14, written by Peter Selinger 2001-2017
</metadata>
<g transform="translate(0.000000,60.000000) scale(0.100000,-0.100000)"
fill="#000000" stroke="none">
<path d="M120 353 c0 -5 13 -28 29 -52 l30 -44 -30 -43 c-16 -23 -29 -45 -29
-48 0 -3 13 -6 29 -6 23 0 36 9 60 42 17 23 31 48 31 56 0 7 -14 33 -30 58
-25 35 -37 44 -60 44 -17 0 -30 -3 -30 -7z"/>
<path d="M230 350 c0 -6 13 -29 30 -51 l30 -42 -30 -40 c-37 -51 -37 -57 0
-57 23 0 35 9 60 44 16 25 30 50 30 56 0 7 -14 32 -32 56 -24 34 -38 44 -60
44 -15 0 -28 -5 -28 -10z"/>
</g>
</svg>
