<?xml version="1.0" standalone="no"?>
<!DOCTYPE svg PUBLIC "-//W3C//DTD SVG 20010904//EN"
 "http://www.w3.org/TR/2001/REC-SVG-20010904/DTD/svg10.dtd">
<svg version="1.0" xmlns="http://www.w3.org/2000/svg"
 width="47.000000pt" height="60.000000pt" viewBox="0 0 47.000000 60.000000"
 preserveAspectRatio="xMidYMid meet">
<metadata>
Created by potrace 1.14, written by Peter Selinger 2001-2017
</metadata>
<g transform="translate(0.000000,60.000000) scale(0.100000,-0.100000)"
fill="#000000" stroke="none">
<path d="M72 454 c-12 -8 -22 -22 -22 -30 0 -17 12 -18 28 -2 9 9 12 0 12 -40
0 -45 -3 -52 -20 -52 -13 0 -20 -7 -20 -20 0 -18 7 -20 65 -20 58 0 65 2 65
20 0 13 -7 20 -20 20 -18 0 -20 7 -20 70 0 66 -1 70 -23 70 -12 0 -33 -7 -45
-16z"/>
<path d="M217 303 c-77 -122 -102 -169 -91 -171 8 -2 21 -1 28 1 12 5 216 317
216 331 0 3 -11 6 -24 6 -20 0 -41 -27 -129 -167z"/>
<path d="M290 290 c-27 -27 -25 -40 4 -40 14 0 28 5 31 10 8 13 35 13 35 0 0
-6 -10 -18 -22 -28 -48 -38 -68 -62 -68 -82 0 -18 6 -20 70 -20 63 0 70 2 70
20 0 17 -7 20 -42 20 l-43 0 36 25 c51 34 63 70 33 99 -22 23 -80 20 -104 -4z"/>
</g>
</svg>
