<?xml version="1.0" standalone="no"?>
<!DOCTYPE svg PUBLIC "-//W3C//DTD SVG 20010904//EN"
 "http://www.w3.org/TR/2001/REC-SVG-20010904/DTD/svg10.dtd">
<svg version="1.0" xmlns="http://www.w3.org/2000/svg"
 width="47.000000pt" height="61.000000pt" viewBox="0 0 47.000000 61.000000"
 preserveAspectRatio="xMidYMid meet">
<metadata>
Created by potrace 1.14, written by Peter Selinger 2001-2017
</metadata>
<g transform="translate(0.000000,61.000000) scale(0.100000,-0.100000)"
fill="#000000" stroke="none">
<path d="M88 458 c-21 -21 -21 -22 -2 -29 10 -4 23 -3 29 2 13 13 45 11 45 -2
0 -6 -9 -13 -20 -16 -11 -3 -20 -14 -20 -24 0 -12 7 -19 20 -19 11 0 20 -7 20
-15 0 -8 -9 -15 -20 -15 -11 0 -20 5 -20 10 0 14 -37 13 -46 -2 -11 -17 33
-48 68 -48 44 0 68 17 68 48 0 16 -5 33 -11 39 -8 8 -8 13 0 17 6 4 11 16 11
26 0 50 -81 69 -122 28z"/>
<path d="M236 313 c-78 -125 -102 -169 -90 -171 8 -2 21 -1 28 1 12 5 216 318
216 332 0 3 -11 5 -24 5 -19 0 -41 -28 -130 -167z"/>
<path d="M316 271 c-20 -28 -36 -62 -36 -76 0 -23 3 -25 36 -21 30 3 37 0 42
-16 7 -27 40 -19 60 15 13 21 14 30 5 35 -6 4 -13 30 -15 57 -3 46 -5 50 -29
53 -22 3 -33 -6 -63 -47z m44 -31 c0 -24 -4 -30 -21 -30 -20 0 -20 1 -2 30 9
17 19 30 20 30 2 0 3 -13 3 -30z"/>
</g>
</svg>
