<?xml version="1.0" standalone="no"?>
<!DOCTYPE svg PUBLIC "-//W3C//DTD SVG 20010904//EN"
 "http://www.w3.org/TR/2001/REC-SVG-20010904/DTD/svg10.dtd">
<svg version="1.0" xmlns="http://www.w3.org/2000/svg"
 width="47.000000pt" height="61.000000pt" viewBox="0 0 47.000000 61.000000"
 preserveAspectRatio="xMidYMid meet">
<metadata>
Created by potrace 1.14, written by Peter Selinger 2001-2017
</metadata>
<g transform="translate(0.000000,61.000000) scale(0.100000,-0.100000)"
fill="#000000" stroke="none">
<path d="M247 542 c-32 -34 -34 -42 -6 -42 21 0 98 49 99 63 0 4 -15 7 -33 7
-23 0 -41 -8 -60 -28z"/>
<path d="M157 328 c-30 -84 -58 -161 -62 -170 -6 -15 -1 -18 32 -18 38 0 40 2
52 40 l12 40 64 0 64 0 12 -40 c12 -38 14 -40 52 -40 27 0 38 4 34 13 -2 6
-30 83 -62 170 l-58 157 -42 0 -42 0 -56 -152z m124 5 l18 -53 -44 0 -43 0 21
66 c12 36 23 59 26 52 2 -7 12 -37 22 -65z"/>
</g>
</svg>
