<?xml version="1.0" standalone="no"?>
<!DOCTYPE svg PUBLIC "-//W3C//DTD SVG 20010904//EN"
 "http://www.w3.org/TR/2001/REC-SVG-20010904/DTD/svg10.dtd">
<svg version="1.0" xmlns="http://www.w3.org/2000/svg"
 width="47.000000pt" height="60.000000pt" viewBox="0 0 47.000000 60.000000"
 preserveAspectRatio="xMidYMid meet">
<metadata>
Created by potrace 1.14, written by Peter Selinger 2001-2017
</metadata>
<g transform="translate(0.000000,60.000000) scale(0.100000,-0.100000)"
fill="#000000" stroke="none">
<path d="M217 542 c-32 -34 -34 -42 -6 -42 21 0 98 49 99 63 0 4 -15 7 -33 7
-23 0 -41 -8 -60 -28z"/>
<path d="M200 311 l0 -171 40 0 40 0 -2 168 -3 167 -37 3 -38 3 0 -170z"/>
</g>
</svg>
