<?xml version="1.0" standalone="no"?>
<!DOCTYPE svg PUBLIC "-//W3C//DTD SVG 20010904//EN"
 "http://www.w3.org/TR/2001/REC-SVG-20010904/DTD/svg10.dtd">
<svg version="1.0" xmlns="http://www.w3.org/2000/svg"
 width="47.000000pt" height="60.000000pt" viewBox="0 0 47.000000 60.000000"
 preserveAspectRatio="xMidYMid meet">
<metadata>
Created by potrace 1.14, written by Peter Selinger 2001-2017
</metadata>
<g transform="translate(0.000000,60.000000) scale(0.100000,-0.100000)"
fill="#000000" stroke="none">
<path d="M190 563 c1 -14 80 -63 100 -63 27 0 25 11 -8 43 -26 25 -93 39 -92
20z"/>
<path d="M162 463 c-64 -31 -95 -114 -78 -208 27 -144 255 -167 316 -32 41 88
14 194 -59 235 -47 27 -131 29 -179 5z m139 -56 c27 -20 39 -54 39 -106 0 -68
-31 -106 -88 -106 -49 0 -78 24 -93 75 -14 46 3 113 34 135 26 18 86 19 108 2z"/>
</g>
</svg>
