<?xml version="1.0" standalone="no"?>
<!DOCTYPE svg PUBLIC "-//W3C//DTD SVG 20010904//EN"
 "http://www.w3.org/TR/2001/REC-SVG-20010904/DTD/svg10.dtd">
<svg version="1.0" xmlns="http://www.w3.org/2000/svg"
 width="47.000000pt" height="60.000000pt" viewBox="0 0 47.000000 60.000000"
 preserveAspectRatio="xMidYMid meet">
<metadata>
Created by potrace 1.14, written by Peter Selinger 2001-2017
</metadata>
<g transform="translate(0.000000,60.000000) scale(0.100000,-0.100000)"
fill="#000000" stroke="none">
<path d="M237 542 c-32 -34 -34 -42 -6 -42 21 0 98 49 99 63 0 4 -15 7 -33 7
-23 0 -41 -8 -60 -28z"/>
<path d="M162 463 c-58 -28 -77 -67 -77 -155 0 -90 16 -120 86 -156 83 -44
186 -13 227 68 44 87 18 196 -57 238 -47 27 -131 29 -179 5z m139 -56 c27 -20
39 -54 39 -106 0 -68 -31 -106 -88 -106 -49 0 -78 24 -93 75 -14 46 3 113 34
135 26 18 86 19 108 2z"/>
</g>
</svg>
