<?xml version="1.0" standalone="no"?>
<!DOCTYPE svg PUBLIC "-//W3C//DTD SVG 20010904//EN"
 "http://www.w3.org/TR/2001/REC-SVG-20010904/DTD/svg10.dtd">
<svg version="1.0" xmlns="http://www.w3.org/2000/svg"
 width="47.000000pt" height="60.000000pt" viewBox="0 0 47.000000 60.000000"
 preserveAspectRatio="xMidYMid meet">
<metadata>
Created by potrace 1.14, written by Peter Selinger 2001-2017
</metadata>
<g transform="translate(0.000000,60.000000) scale(0.100000,-0.100000)"
fill="#000000" stroke="none">
<path d="M160 563 c1 -14 80 -63 100 -63 27 0 25 11 -8 43 -26 25 -93 39 -92
20z"/>
<path d="M90 344 l0 -136 33 -33 c43 -43 108 -55 171 -31 76 29 81 39 84 197
l4 139 -35 0 -35 0 -4 -125 c-3 -136 -9 -150 -64 -161 -21 -4 -37 0 -54 14
-24 19 -25 26 -28 146 l-4 126 -34 0 -34 0 0 -136z"/>
</g>
</svg>
