<?xml version="1.0" standalone="no"?>
<!DOCTYPE svg PUBLIC "-//W3C//DTD SVG 20010904//EN"
 "http://www.w3.org/TR/2001/REC-SVG-20010904/DTD/svg10.dtd">
<svg version="1.0" xmlns="http://www.w3.org/2000/svg"
 width="47.000000pt" height="60.000000pt" viewBox="0 0 47.000000 60.000000"
 preserveAspectRatio="xMidYMid meet">
<metadata>
Created by potrace 1.14, written by Peter Selinger 2001-2017
</metadata>
<g transform="translate(0.000000,60.000000) scale(0.100000,-0.100000)"
fill="#000000" stroke="none">
<path d="M227 542 c-32 -34 -34 -42 -6 -42 21 0 98 49 99 63 0 4 -15 7 -33 7
-23 0 -41 -8 -60 -28z"/>
<path d="M90 344 l0 -136 33 -33 c44 -44 108 -55 172 -30 77 29 85 47 85 201
l0 134 -34 0 -34 0 -4 -125 c-3 -142 -12 -159 -74 -159 -63 0 -74 25 -74 165
l0 119 -35 0 -35 0 0 -136z"/>
</g>
</svg>
