<?xml version="1.0" standalone="no"?>
<!DOCTYPE svg PUBLIC "-//W3C//DTD SVG 20010904//EN"
 "http://www.w3.org/TR/2001/REC-SVG-20010904/DTD/svg10.dtd">
<svg version="1.0" xmlns="http://www.w3.org/2000/svg"
 width="47.000000pt" height="61.000000pt" viewBox="0 0 47.000000 61.000000"
 preserveAspectRatio="xMidYMid meet">
<metadata>
Created by potrace 1.14, written by Peter Selinger 2001-2017
</metadata>
<g transform="translate(0.000000,61.000000) scale(0.100000,-0.100000)"
fill="#000000" stroke="none">
<path d="M187 532 c-36 -40 -9 -102 45 -102 51 0 78 69 40 103 -24 22 -65 21
-85 -1z m63 -28 c11 -12 10 -18 -3 -32 -16 -15 -18 -15 -34 0 -13 14 -14 20
-3 32 7 9 16 16 20 16 4 0 13 -7 20 -16z"/>
<path d="M156 389 c-14 -11 -26 -29 -26 -40 0 -15 7 -19 35 -19 19 0 35 4 35
10 0 5 9 14 19 20 15 7 23 6 35 -6 29 -29 19 -41 -41 -47 -74 -8 -108 -41
-100 -95 8 -44 22 -60 62 -68 35 -6 94 17 96 39 0 6 5 2 11 -10 12 -24 43 -35
76 -26 27 7 29 39 3 46 -16 4 -19 16 -22 92 -4 77 -7 89 -28 106 -33 27 -119
26 -155 -2z m114 -132 c0 -25 -31 -57 -56 -57 -33 0 -35 46 -1 60 32 13 57 12
57 -3z"/>
</g>
</svg>
