<?xml version="1.0" standalone="no"?>
<!DOCTYPE svg PUBLIC "-//W3C//DTD SVG 20010904//EN"
 "http://www.w3.org/TR/2001/REC-SVG-20010904/DTD/svg10.dtd">
<svg version="1.0" xmlns="http://www.w3.org/2000/svg"
 width="47.000000pt" height="60.000000pt" viewBox="0 0 47.000000 60.000000"
 preserveAspectRatio="xMidYMid meet">
<metadata>
Created by potrace 1.14, written by Peter Selinger 2001-2017
</metadata>
<g transform="translate(0.000000,60.000000) scale(0.100000,-0.100000)"
fill="#000000" stroke="none">
<path d="M181 503 c1 -17 83 -73 105 -73 31 0 30 2 -7 45 -24 27 -39 35 -65
35 -19 0 -34 -3 -33 -7z"/>
<path d="M174 376 c-31 -31 -34 -39 -34 -92 0 -102 58 -156 147 -139 35 6 83
44 83 65 0 16 -66 12 -80 -5 -23 -27 -62 -10 -75 33 -6 22 -5 22 74 22 44 0
83 4 86 10 10 17 -15 91 -40 116 -19 19 -35 24 -76 24 -45 0 -55 -4 -85 -34z
m108 -18 c8 -7 18 -21 21 -30 6 -16 0 -18 -43 -18 -54 0 -61 9 -30 40 23 23
31 24 52 8z"/>
</g>
</svg>
