<?xml version="1.0" standalone="no"?>
<!DOCTYPE svg PUBLIC "-//W3C//DTD SVG 20010904//EN"
 "http://www.w3.org/TR/2001/REC-SVG-20010904/DTD/svg10.dtd">
<svg version="1.0" xmlns="http://www.w3.org/2000/svg"
 width="47.000000pt" height="60.000000pt" viewBox="0 0 47.000000 60.000000"
 preserveAspectRatio="xMidYMid meet">
<metadata>
Created by potrace 1.14, written by Peter Selinger 2001-2017
</metadata>
<g transform="translate(0.000000,60.000000) scale(0.100000,-0.100000)"
fill="#000000" stroke="none">
<path d="M173 488 c-6 -7 -13 -23 -16 -35 -4 -18 -1 -23 13 -23 11 0 23 7 28
16 8 15 12 15 40 0 58 -30 102 -13 102 38 0 20 -24 21 -40 1 -11 -13 -15 -13
-41 0 -34 18 -73 19 -86 3z"/>
<path d="M130 280 l0 -130 35 0 35 0 0 75 c0 103 23 145 70 130 23 -7 30 -34
30 -127 l0 -78 36 0 36 0 -4 109 c-2 90 -6 113 -22 130 -27 30 -98 29 -126 -1
l-20 -22 0 22 c0 18 -6 22 -35 22 l-35 0 0 -130z"/>
</g>
</svg>
