<?xml version="1.0" standalone="no"?>
<!DOCTYPE svg PUBLIC "-//W3C//DTD SVG 20010904//EN"
 "http://www.w3.org/TR/2001/REC-SVG-20010904/DTD/svg10.dtd">
<svg version="1.0" xmlns="http://www.w3.org/2000/svg"
 width="47.000000pt" height="60.000000pt" viewBox="0 0 47.000000 60.000000"
 preserveAspectRatio="xMidYMid meet">
<metadata>
Created by potrace 1.14, written by Peter Selinger 2001-2017
</metadata>
<g transform="translate(0.000000,60.000000) scale(0.100000,-0.100000)"
fill="#000000" stroke="none">
<path d="M170 502 c0 -17 90 -73 112 -70 21 3 21 4 -11 41 -26 29 -40 37 -67
37 -19 0 -34 -4 -34 -8z"/>
<path d="M158 381 c-29 -25 -32 -35 -36 -95 -4 -64 -3 -67 30 -100 113 -113
277 8 214 158 -20 49 -51 66 -118 66 -49 0 -62 -4 -90 -29z m130 -33 c7 -7 12
-38 12 -70 0 -49 -3 -60 -23 -72 -31 -21 -63 -10 -77 25 -14 32 -8 93 11 115
14 17 61 18 77 2z"/>
</g>
</svg>
