<?xml version="1.0" standalone="no"?>
<!DOCTYPE svg PUBLIC "-//W3C//DTD SVG 20010904//EN"
 "http://www.w3.org/TR/2001/REC-SVG-20010904/DTD/svg10.dtd">
<svg version="1.0" xmlns="http://www.w3.org/2000/svg"
 width="47.000000pt" height="60.000000pt" viewBox="0 0 47.000000 60.000000"
 preserveAspectRatio="xMidYMid meet">
<metadata>
Created by potrace 1.14, written by Peter Selinger 2001-2017
</metadata>
<g transform="translate(0.000000,60.000000) scale(0.100000,-0.100000)"
fill="#000000" stroke="none">
<path d="M160 460 c0 -27 3 -30 30 -30 27 0 30 3 30 30 0 27 -3 30 -30 30 -27
0 -30 -3 -30 -30z"/>
<path d="M262 463 c2 -22 9 -29 31 -31 24 -3 27 0 27 27 0 28 -3 31 -31 31
-27 0 -30 -3 -27 -27z"/>
<path d="M148 381 c-29 -25 -32 -35 -36 -95 -4 -64 -3 -67 30 -100 88 -88 228
-33 228 91 0 89 -43 133 -132 133 -49 0 -62 -4 -90 -29z m130 -33 c7 -7 12
-38 12 -70 0 -49 -3 -60 -23 -72 -31 -21 -63 -10 -77 25 -14 32 -8 93 11 115
14 17 61 18 77 2z"/>
</g>
</svg>
