<?xml version="1.0" standalone="no"?>
<!DOCTYPE svg PUBLIC "-//W3C//DTD SVG 20010904//EN"
 "http://www.w3.org/TR/2001/REC-SVG-20010904/DTD/svg10.dtd">
<svg version="1.0" xmlns="http://www.w3.org/2000/svg"
 width="47.000000pt" height="60.000000pt" viewBox="0 0 47.000000 60.000000"
 preserveAspectRatio="xMidYMid meet">
<metadata>
Created by potrace 1.14, written by Peter Selinger 2001-2017
</metadata>
<g transform="translate(0.000000,60.000000) scale(0.100000,-0.100000)"
fill="#000000" stroke="none">
<path d="M330 412 c0 -5 -33 -7 -73 -4 -71 4 -75 3 -107 -25 -29 -26 -34 -37
-38 -90 -2 -36 1 -69 8 -83 10 -18 9 -25 -9 -44 -12 -12 -21 -25 -21 -29 0
-13 33 -7 50 8 15 13 24 14 63 4 58 -16 112 3 144 50 26 38 31 103 11 145 -9
21 -8 29 5 44 23 25 21 32 -8 32 -14 0 -25 -4 -25 -8z m-60 -61 c0 -5 -21 -31
-46 -58 l-45 -48 4 43 c3 23 11 49 17 57 13 16 70 21 70 6z m22 -102 c-6 -37
-40 -63 -71 -51 -21 8 -21 9 20 56 44 50 59 49 51 -5z"/>
</g>
</svg>
