<?xml version="1.0" standalone="no"?>
<!DOCTYPE svg PUBLIC "-//W3C//DTD SVG 20010904//EN"
 "http://www.w3.org/TR/2001/REC-SVG-20010904/DTD/svg10.dtd">
<svg version="1.0" xmlns="http://www.w3.org/2000/svg"
 width="47.000000pt" height="60.000000pt" viewBox="0 0 47.000000 60.000000"
 preserveAspectRatio="xMidYMid meet">
<metadata>
Created by potrace 1.14, written by Peter Selinger 2001-2017
</metadata>
<g transform="translate(0.000000,60.000000) scale(0.100000,-0.100000)"
fill="#000000" stroke="none">
<path d="M151 503 c1 -17 83 -73 105 -73 31 0 30 2 -7 45 -24 27 -39 35 -65
35 -19 0 -34 -3 -33 -7z"/>
<path d="M120 302 c0 -95 3 -111 20 -130 38 -41 92 -40 130 1 l20 21 0 -22 c0
-18 6 -22 35 -22 l35 0 0 130 0 130 -40 0 -40 0 0 -86 c0 -95 -10 -124 -43
-124 -40 0 -47 18 -47 117 l0 93 -35 0 -35 0 0 -108z"/>
</g>
</svg>
