<?xml version="1.0" standalone="no"?>
<!DOCTYPE svg PUBLIC "-//W3C//DTD SVG 20010904//EN"
 "http://www.w3.org/TR/2001/REC-SVG-20010904/DTD/svg10.dtd">
<svg version="1.0" xmlns="http://www.w3.org/2000/svg"
 width="47.000000pt" height="60.000000pt" viewBox="0 0 47.000000 60.000000"
 preserveAspectRatio="xMidYMid meet">
<metadata>
Created by potrace 1.14, written by Peter Selinger 2001-2017
</metadata>
<g transform="translate(0.000000,60.000000) scale(0.100000,-0.100000)"
fill="#000000" stroke="none">
<path d="M252 477 c-38 -39 -39 -47 -11 -47 22 0 99 55 99 71 0 23 -58 7 -88
-24z"/>
<path d="M139 363 c10 -27 33 -83 50 -126 17 -43 31 -83 31 -91 0 -19 -34 -46
-58 -46 -17 0 -22 -6 -22 -25 0 -23 4 -25 43 -25 67 0 81 19 151 206 24 66 47
127 51 137 6 14 1 17 -31 17 l-39 0 -24 -83 c-13 -45 -27 -85 -31 -90 -3 -4
-19 33 -35 83 l-29 90 -38 0 -38 0 19 -47z"/>
</g>
</svg>
