<?xml version="1.0" standalone="no"?>
<!DOCTYPE svg PUBLIC "-//W3C//DTD SVG 20010904//EN"
 "http://www.w3.org/TR/2001/REC-SVG-20010904/DTD/svg10.dtd">
<svg version="1.0" xmlns="http://www.w3.org/2000/svg"
 width="47.000000pt" height="60.000000pt" viewBox="0 0 47.000000 60.000000"
 preserveAspectRatio="xMidYMid meet">
<metadata>
Created by potrace 1.14, written by Peter Selinger 2001-2017
</metadata>
<g transform="translate(0.000000,60.000000) scale(0.100000,-0.100000)"
fill="#000000" stroke="none">
<path d="M137 504 c-4 -4 -7 -108 -7 -231 l0 -223 35 0 35 0 0 65 0 66 30 -22
c57 -43 133 0 146 83 15 90 -25 158 -93 158 -21 0 -48 -7 -60 -15 -22 -15 -22
-15 -25 52 -3 64 -4 68 -28 71 -14 2 -29 0 -33 -4z m151 -166 c18 -18 15 -113
-4 -132 -19 -20 -35 -20 -59 -2 -23 17 -27 104 -6 129 16 20 52 22 69 5z"/>
</g>
</svg>
