<?xml version="1.0" standalone="no"?>
<!DOCTYPE svg PUBLIC "-//W3C//DTD SVG 20010904//EN"
 "http://www.w3.org/TR/2001/REC-SVG-20010904/DTD/svg10.dtd">
<svg version="1.0" xmlns="http://www.w3.org/2000/svg"
 width="47.000000pt" height="60.000000pt" viewBox="0 0 47.000000 60.000000"
 preserveAspectRatio="xMidYMid meet">
<metadata>
Created by potrace 1.14, written by Peter Selinger 2001-2017
</metadata>
<g transform="translate(0.000000,60.000000) scale(0.100000,-0.100000)"
fill="#000000" stroke="none">
<path d="M204 415 c-6 -41 -9 -45 -35 -45 -22 0 -29 -5 -29 -20 0 -13 7 -20
20 -20 13 0 20 -7 20 -19 0 -32 -11 -51 -30 -51 -26 0 -35 -31 -10 -37 23 -6
23 -5 11 -55 -8 -36 -7 -38 14 -38 20 0 25 6 31 45 6 43 8 45 40 45 37 0 37 1
25 -52 -8 -35 -7 -38 14 -38 19 0 24 7 29 45 7 42 9 45 37 45 22 0 29 5 29 20
0 14 -7 20 -24 20 -21 0 -23 3 -17 32 5 23 14 34 31 38 32 7 40 40 11 40 -23
0 -25 10 -12 58 9 29 8 32 -13 32 -19 0 -25 -7 -32 -42 -8 -39 -12 -43 -42
-46 l-33 -3 6 45 c7 42 5 46 -13 46 -17 0 -22 -8 -28 -45z m86 -107 c0 -36
-14 -50 -47 -46 -28 3 -29 5 -21 36 7 27 13 32 38 32 24 0 30 -4 30 -22z"/>
</g>
</svg>
