<?xml version="1.0" standalone="no"?>
<!DOCTYPE svg PUBLIC "-//W3C//DTD SVG 20010904//EN"
 "http://www.w3.org/TR/2001/REC-SVG-20010904/DTD/svg10.dtd">
<svg version="1.0" xmlns="http://www.w3.org/2000/svg"
 width="47.000000pt" height="60.000000pt" viewBox="0 0 47.000000 60.000000"
 preserveAspectRatio="xMidYMid meet">
<metadata>
Created by potrace 1.14, written by Peter Selinger 2001-2017
</metadata>
<g transform="translate(0.000000,60.000000) scale(0.100000,-0.100000)"
fill="#000000" stroke="none">
<path d="M240 476 c0 -8 -15 -17 -34 -20 -75 -14 -96 -95 -38 -147 18 -16 41
-29 52 -29 17 0 20 -7 20 -45 0 -25 -4 -45 -9 -45 -11 0 -38 25 -43 41 -6 18
-58 -1 -58 -21 0 -25 45 -67 80 -74 21 -4 30 -11 30 -26 0 -11 7 -20 15 -20 8
0 15 8 15 18 0 13 12 22 38 30 50 15 74 42 75 85 1 48 -25 84 -73 98 -38 11
-40 14 -40 50 0 30 3 37 15 33 8 -3 17 -14 20 -23 4 -13 14 -16 40 -13 40 5
39 3 23 37 -12 27 -54 55 -83 55 -8 0 -15 7 -15 15 0 8 -7 15 -15 15 -8 0 -15
-6 -15 -14z m0 -102 c0 -37 -14 -42 -34 -12 -7 12 -6 21 3 32 21 25 31 19 31
-20z m77 -140 c6 -17 -14 -44 -33 -44 -10 0 -14 13 -14 40 0 38 1 40 21 30 11
-6 23 -18 26 -26z"/>
</g>
</svg>
