<?xml version="1.0" standalone="no"?>
<!DOCTYPE svg PUBLIC "-//W3C//DTD SVG 20010904//EN"
 "http://www.w3.org/TR/2001/REC-SVG-20010904/DTD/svg10.dtd">
<svg version="1.0" xmlns="http://www.w3.org/2000/svg"
 width="47.000000pt" height="60.000000pt" viewBox="0 0 47.000000 60.000000"
 preserveAspectRatio="xMidYMid meet">
<metadata>
Created by potrace 1.14, written by Peter Selinger 2001-2017
</metadata>
<g transform="translate(0.000000,60.000000) scale(0.100000,-0.100000)"
fill="#000000" stroke="none">
<path d="M182 460 c-34 -14 -48 -53 -35 -101 5 -21 7 -39 2 -39 -4 0 -21 -14
-38 -31 -55 -55 -37 -135 35 -159 37 -12 99 -6 121 12 9 7 25 5 54 -6 51 -20
79 -13 79 20 0 20 -5 24 -28 24 -16 0 -31 3 -34 6 -3 3 4 28 15 55 19 43 19
51 7 59 -27 18 -40 10 -57 -32 l-17 -41 -28 33 c-15 19 -28 37 -28 41 0 4 14
12 30 19 63 26 80 93 34 129 -28 22 -73 26 -112 11z m76 -67 c3 -23 -30 -49
-48 -38 -12 7 -13 48 -3 59 15 14 48 1 51 -21z m-48 -161 c34 -51 34 -49 5
-56 -51 -13 -87 32 -58 73 19 28 24 27 53 -17z"/>
</g>
</svg>
