<?xml version="1.0" standalone="no"?>
<!DOCTYPE svg PUBLIC "-//W3C//DTD SVG 20010904//EN"
 "http://www.w3.org/TR/2001/REC-SVG-20010904/DTD/svg10.dtd">
<svg version="1.0" xmlns="http://www.w3.org/2000/svg"
 width="47.000000pt" height="60.000000pt" viewBox="0 0 47.000000 60.000000"
 preserveAspectRatio="xMidYMid meet">
<metadata>
Created by potrace 1.14, written by Peter Selinger 2001-2017
</metadata>
<g transform="translate(0.000000,60.000000) scale(0.100000,-0.100000)"
fill="#000000" stroke="none">
<path d="M230 439 c0 -29 -2 -31 -27 -25 -17 5 -29 3 -34 -6 -14 -22 -10 -38
10 -38 27 0 34 -15 16 -30 -21 -17 -19 -33 5 -48 18 -11 22 -9 37 17 l17 29
18 -29 c16 -26 20 -28 38 -17 24 15 25 31 5 48 -18 15 -11 30 16 30 20 0 24
16 10 39 -6 9 -18 11 -35 7 -24 -6 -26 -4 -26 24 0 25 -4 30 -25 30 -21 0 -25
-5 -25 -31z"/>
</g>
</svg>
