<?xml version="1.0" standalone="no"?>
<!DOCTYPE svg PUBLIC "-//W3C//DTD SVG 20010904//EN"
 "http://www.w3.org/TR/2001/REC-SVG-20010904/DTD/svg10.dtd">
<svg version="1.0" xmlns="http://www.w3.org/2000/svg"
 width="47.000000pt" height="60.000000pt" viewBox="0 0 47.000000 60.000000"
 preserveAspectRatio="xMidYMid meet">
<metadata>
Created by potrace 1.14, written by Peter Selinger 2001-2017
</metadata>
<g transform="translate(0.000000,60.000000) scale(0.100000,-0.100000)"
fill="#000000" stroke="none">
<path d="M171 454 c-34 -24 -51 -75 -51 -154 0 -118 38 -175 115 -175 77 0
115 57 115 175 0 117 -36 170 -115 170 -22 0 -51 -7 -64 -16z m99 -70 c16 -41
12 -156 -6 -182 -21 -30 -52 -28 -64 4 -13 34 -13 160 0 185 16 29 58 25 70
-7z"/>
</g>
</svg>
