<?xml version="1.0" standalone="no"?>
<!DOCTYPE svg PUBLIC "-//W3C//DTD SVG 20010904//EN"
 "http://www.w3.org/TR/2001/REC-SVG-20010904/DTD/svg10.dtd">
<svg version="1.0" xmlns="http://www.w3.org/2000/svg"
 width="47.000000pt" height="61.000000pt" viewBox="0 0 47.000000 61.000000"
 preserveAspectRatio="xMidYMid meet">
<metadata>
Created by potrace 1.14, written by Peter Selinger 2001-2017
</metadata>
<g transform="translate(0.000000,61.000000) scale(0.100000,-0.100000)"
fill="#000000" stroke="none">
<path d="M161 462 c-19 -9 -44 -29 -55 -44 -24 -34 -33 -131 -17 -181 37 -112
201 -142 280 -52 39 44 39 52 0 60 -26 6 -35 3 -53 -18 -27 -32 -58 -41 -99
-28 -53 18 -76 79 -57 150 19 72 91 94 149 46 22 -19 36 -24 55 -19 30 7 32
20 10 53 -35 50 -147 67 -213 33z"/>
</g>
</svg>
