<?xml version="1.0" standalone="no"?>
<!DOCTYPE svg PUBLIC "-//W3C//DTD SVG 20010904//EN"
 "http://www.w3.org/TR/2001/REC-SVG-20010904/DTD/svg10.dtd">
<svg version="1.0" xmlns="http://www.w3.org/2000/svg"
 width="47.000000pt" height="61.000000pt" viewBox="0 0 47.000000 61.000000"
 preserveAspectRatio="xMidYMid meet">
<metadata>
Created by potrace 1.14, written by Peter Selinger 2001-2017
</metadata>
<g transform="translate(0.000000,61.000000) scale(0.100000,-0.100000)"
fill="#000000" stroke="none">
<path d="M120 310 l0 -170 40 0 40 0 0 60 0 60 85 0 85 0 0 30 0 30 -85 0 -85
0 0 50 0 50 85 0 85 0 0 30 0 30 -125 0 -125 0 0 -170z"/>
</g>
</svg>
