<?xml version="1.0" standalone="no"?>
<!DOCTYPE svg PUBLIC "-//W3C//DTD SVG 20010904//EN"
 "http://www.w3.org/TR/2001/REC-SVG-20010904/DTD/svg10.dtd">
<svg version="1.0" xmlns="http://www.w3.org/2000/svg"
 width="47.000000pt" height="60.000000pt" viewBox="0 0 47.000000 60.000000"
 preserveAspectRatio="xMidYMid meet">
<metadata>
Created by potrace 1.14, written by Peter Selinger 2001-2017
</metadata>
<g transform="translate(0.000000,60.000000) scale(0.100000,-0.100000)"
fill="#000000" stroke="none">
<path d="M152 463 c-49 -24 -75 -68 -80 -134 -2 -31 1 -73 8 -93 13 -41 61
-85 101 -93 16 -3 31 -13 34 -23 18 -57 81 -91 140 -76 18 5 25 13 25 31 0 21
-5 25 -28 25 -27 0 -72 24 -62 32 3 3 22 15 44 28 102 61 100 240 -3 298 -47
27 -131 29 -179 5z m131 -54 c52 -24 66 -136 23 -186 -30 -34 -92 -39 -125 -9
-48 43 -47 157 2 191 25 18 66 19 100 4z"/>
</g>
</svg>
