<?xml version="1.0" standalone="no"?>
<!DOCTYPE svg PUBLIC "-//W3C//DTD SVG 20010904//EN"
 "http://www.w3.org/TR/2001/REC-SVG-20010904/DTD/svg10.dtd">
<svg version="1.0" xmlns="http://www.w3.org/2000/svg"
 width="47.000000pt" height="60.000000pt" viewBox="0 0 47.000000 60.000000"
 preserveAspectRatio="xMidYMid meet">
<metadata>
Created by potrace 1.14, written by Peter Selinger 2001-2017
</metadata>
<g transform="translate(0.000000,60.000000) scale(0.100000,-0.100000)"
fill="#000000" stroke="none">
<path d="M159 457 c-27 -18 -35 -30 -37 -61 -6 -67 18 -87 141 -121 49 -13 57
-19 57 -40 0 -50 -84 -62 -127 -19 -21 21 -32 25 -59 19 -41 -7 -42 -14 -8
-54 61 -73 231 -62 264 18 14 35 6 82 -18 104 -9 9 -50 25 -89 36 -88 24 -93
27 -93 52 0 40 99 49 119 10 7 -13 19 -16 45 -13 41 5 40 3 24 37 -17 37 -58
55 -126 55 -45 0 -67 -5 -93 -23z"/>
</g>
</svg>
