<?xml version="1.0" standalone="no"?>
<!DOCTYPE svg PUBLIC "-//W3C//DTD SVG 20010904//EN"
 "http://www.w3.org/TR/2001/REC-SVG-20010904/DTD/svg10.dtd">
<svg version="1.0" xmlns="http://www.w3.org/2000/svg"
 width="47.000000pt" height="60.000000pt" viewBox="0 0 47.000000 60.000000"
 preserveAspectRatio="xMidYMid meet">
<metadata>
Created by potrace 1.14, written by Peter Selinger 2001-2017
</metadata>
<g transform="translate(0.000000,60.000000) scale(0.100000,-0.100000)"
fill="#000000" stroke="none">
<path d="M99 463 c5 -10 30 -47 54 -83 l44 -65 -59 -87 -59 -88 41 0 c39 0 42
3 78 60 20 32 40 59 44 60 4 0 23 -27 43 -60 35 -57 38 -60 76 -60 29 0 38 3
33 13 -4 6 -29 46 -55 88 l-47 76 49 74 c26 41 48 78 49 82 0 5 -17 7 -37 5
-33 -3 -42 -10 -70 -53 -18 -27 -37 -51 -41 -53 -4 -1 -22 23 -40 53 -31 52
-35 55 -73 55 -35 0 -39 -2 -30 -17z"/>
</g>
</svg>
