<?xml version="1.0" standalone="no"?>
<!DOCTYPE svg PUBLIC "-//W3C//DTD SVG 20010904//EN"
 "http://www.w3.org/TR/2001/REC-SVG-20010904/DTD/svg10.dtd">
<svg version="1.0" xmlns="http://www.w3.org/2000/svg"
 width="47.000000pt" height="60.000000pt" viewBox="0 0 47.000000 60.000000"
 preserveAspectRatio="xMidYMid meet">
<metadata>
Created by potrace 1.14, written by Peter Selinger 2001-2017
</metadata>
<g transform="translate(0.000000,60.000000) scale(0.100000,-0.100000)"
fill="#000000" stroke="none">
<path d="M90 473 c0 -4 25 -48 55 -98 53 -87 55 -92 55 -162 l0 -73 40 0 40 0
0 69 c0 66 3 74 48 148 81 130 79 123 33 123 -39 0 -40 -2 -79 -71 l-39 -71
-40 69 c-36 63 -42 68 -76 71 -20 2 -37 0 -37 -5z"/>
</g>
</svg>
