<?xml version="1.0" standalone="no"?>
<!DOCTYPE svg PUBLIC "-//W3C//DTD SVG 20010904//EN"
 "http://www.w3.org/TR/2001/REC-SVG-20010904/DTD/svg10.dtd">
<svg version="1.0" xmlns="http://www.w3.org/2000/svg"
 width="47.000000pt" height="60.000000pt" viewBox="0 0 47.000000 60.000000"
 preserveAspectRatio="xMidYMid meet">
<metadata>
Created by potrace 1.14, written by Peter Selinger 2001-2017
</metadata>
<g transform="translate(0.000000,60.000000) scale(0.100000,-0.100000)"
fill="#000000" stroke="none">
<path d="M193 494 c-10 -4 -13 -60 -13 -230 l0 -224 70 0 c68 0 70 1 70 25 0
22 -4 25 -35 25 l-35 0 0 174 0 175 33 3 c27 2 32 7 32 28 0 23 -4 25 -55 27
-30 1 -61 -1 -67 -3z"/>
</g>
</svg>
