<?xml version="1.0" standalone="no"?>
<!DOCTYPE svg PUBLIC "-//W3C//DTD SVG 20010904//EN"
 "http://www.w3.org/TR/2001/REC-SVG-20010904/DTD/svg10.dtd">
<svg version="1.0" xmlns="http://www.w3.org/2000/svg"
 width="47.000000pt" height="61.000000pt" viewBox="0 0 47.000000 61.000000"
 preserveAspectRatio="xMidYMid meet">
<metadata>
Created by potrace 1.14, written by Peter Selinger 2001-2017
</metadata>
<g transform="translate(0.000000,61.000000) scale(0.100000,-0.100000)"
fill="#000000" stroke="none">
<path d="M197 503 c-4 -7 22 -155 54 -310 10 -49 12 -53 40 -53 17 0 29 5 29
13 -1 6 -15 89 -33 182 -32 166 -33 170 -59 173 -14 2 -28 0 -31 -5z"/>
</g>
</svg>
