46.68201 44.6092
47.67591 45.64149
48.64541 45.80629
49.10116 46.39933
50.034083286342536 46.608989976582279
51.191945428274238 47.048704738953774
52.042022739475556 46.80463694923931
53.042736850807643 46.853006089864451
53.220865512917811 46.23464590105992
53.040876499245172 45.259046535821639
52.167389764215642 45.408391425145183
51.316899041556013 45.245998236667944
51.278503452363168 44.514854234386348
50.305642938036272 44.609835516938801
50.339129266161422 44.284015611338546
50.891291945200066 44.031033637053667
51.342427199108215 43.132974758469416
52.501426222550293 42.792297878585188
52.692112257707294 42.443895372073356
52.446339145727251 42.027150783855546
52.50246 41.78333
52.814688755103617 41.135370591794711
52.916749708880076 41.868116563477358
53.72171349469059 42.123191433270051
54.008310988181364 41.551210842447418
54.736845330632235 40.951014919593447
53.858139275941113 40.631034450842193
52.915251092343652 40.876523342444742
52.693972609269821 40.033629055332014
53.357808058491202 39.975286363274492
53.101027866432986 39.290573635407156
53.880928582581845 38.952093003895328
53.735511102112497 37.906136176091707
53.921597934795585 37.198918361961276
53.825789829326396 36.965030829408249
52.264024692601453 36.700421657857675
50.842354363819766 36.872814235983384
50.14777143738462 37.374566555321366
49.199612257693332 37.582874253889884
48.88327 38.32026
48.85653242370762 38.815486355131839
49.223228387250771 39.049218858387903
49.395259230350376 39.399481716462219
49.56920210144483 40.176100979160694
50.392821079312654 40.256561184239175
50.084829542853129 40.52615713150584
49.618914829309574 40.572924302729945
49.110263706260724 41.282286688800497
48.58437 41.80888
47.49252 42.98658
47.59094 43.66016
46.68201 44.6092
